{
  "changes":[
    {"add_song":{"id":"40","playlist_id":"1"}},
    {"add_playlist":{"id":"100","user_id":"1","song_ids":["1","2","3"]}},
    {"add_playlist":{"id":"9999","user_id":"1","song_ids":["1","2"]}},
    {"add_playlist":{"id":"98","user_id":"1","song_ids":["1","3"]}},
    {"add_playlist":{"id":"111111","user_id":"1","song_ids":["1","3","7"]}},
    {"rm_playlist":{"id":"98"}},
    {"rm_playlist":{"id":"2"}},
    {"add_song":{"id":"8","playlist_id":"9999"}}
  ]
}
